## Interface: 60000
## Title: SMSNotifier
## Notes: Installed and updated automatically by the WOW SMSNotifier desktop application
## Version: 48879
## Author: TrumpetX
## SavedVariables: SMSNotifierDB
## OptionalDeps: Ace3
## X-Embeds: Ace3

SMSNotifier.xml
SMSNotifier.lua